<?xml version="1.0" encoding="UTF-8"?>
<svg xmlns="http://www.w3.org/2000/svg"
     xmlns:xlink="http://www.w3.org/1999/xlink"
     version="1.2"
     width="101.6mm" height="101.6mm" viewBox="0 0 101.6 101.6"
     stroke="none"
     fill="#000000"
     stroke-width="0.3"
     font-size="3.88"
>
<g stroke-width="1.13" stroke="#BBBBBB" id="fig-2ee5a615420444dfae44367249a0ebdf-element-1">
  <path fill="none" d="M66.04,33.08 L 70.51 31.34"/>
  <path fill="none" d="M65.96,29.8 L 70.51 31.34"/>
  <path fill="none" d="M46.36,31.89 L 70.51 31.34"/>
  <path fill="none" d="M64.58,18.03 L 66.88 13.82"/>
  <path fill="none" d="M62.41,15.57 L 66.88 13.82"/>
  <path fill="none" d="M46.36,31.89 L 66.88 13.82"/>
  <path fill="none" d="M31.83,13.63 L 27.57 11.41"/>
  <path fill="none" d="M29.41,15.85 L 27.57 11.41"/>
  <path fill="none" d="M46.36,31.89 L 27.57 11.41"/>
  <path fill="none" d="M28.42,57.99 L 27.46 62.7"/>
  <path fill="none" d="M31.22,59.71 L 27.46 62.7"/>
  <path fill="none" d="M46.36,31.89 L 27.46 62.7"/>
  <path fill="none" d="M54.83,30.06 L 50.36 31.8"/>
  <path fill="none" d="M54.91,33.34 L 50.36 31.8"/>
  <path fill="none" d="M74.51,31.25 L 50.36 31.8"/>
  <path fill="none" d="M73.39,19.1 L 70.78 15.07"/>
  <path fill="none" d="M70.19,19.84 L 70.78 15.07"/>
  <path fill="none" d="M74.51,31.25 L 70.78 15.07"/>
  <path fill="none" d="M88.29,19.76 L 90.31 15.41"/>
  <path fill="none" d="M85.96,17.44 L 90.31 15.41"/>
  <path fill="none" d="M74.51,31.25 L 90.31 15.41"/>
  <path fill="none" d="M22.25,74.19 L 23.25 69.5"/>
  <path fill="none" d="M19.47,72.45 L 23.25 69.5"/>
  <path fill="none" d="M8.47,93.13 L 23.25 69.5"/>
  <path fill="none" d="M51.66,25.03 L 49.36 29.25"/>
  <path fill="none" d="M53.83,27.5 L 49.36 29.25"/>
  <path fill="none" d="M69.88,11.17 L 49.36 29.25"/>
  <path fill="none" d="M71,23.32 L 73.61 27.35"/>
  <path fill="none" d="M74.2,22.58 L 73.61 27.35"/>
  <path fill="none" d="M69.88,11.17 L 73.61 27.35"/>
  <path fill="none" d="M84.54,13.7 L 89.14 12.33"/>
  <path fill="none" d="M84.74,10.42 L 89.14 12.33"/>
  <path fill="none" d="M69.88,11.17 L 89.14 12.33"/>
  <path fill="none" d="M39.4,26.73 L 43.66 28.95"/>
  <path fill="none" d="M41.82,24.51 L 43.66 28.95"/>
  <path fill="none" d="M24.86,8.47 L 43.66 28.95"/>
  <path fill="none" d="M79.36,24.06 L 77.33 28.41"/>
  <path fill="none" d="M81.68,26.38 L 77.33 28.41"/>
  <path fill="none" d="M93.13,12.57 L 77.33 28.41"/>
  <path fill="none" d="M78.47,10.05 L 73.87 11.41"/>
  <path fill="none" d="M78.28,13.32 L 73.87 11.41"/>
  <path fill="none" d="M93.13,12.57 L 73.87 11.41"/>
  <path fill="none" d="M43.31,40.01 L 44.27 35.3"/>
  <path fill="none" d="M40.51,38.29 L 44.27 35.3"/>
  <path fill="none" d="M25.37,66.11 L 44.27 35.3"/>
  <path fill="none" d="M11.59,85.05 L 10.59 89.74"/>
  <path fill="none" d="M14.37,86.79 L 10.59 89.74"/>
  <path fill="none" d="M25.37,66.11 L 10.59 89.74"/>
</g>
<g stroke="#BBBBBB" fill="#AAAAFF" id="fig-2ee5a615420444dfae44367249a0ebdf-element-2">
  <circle cx="46.36" cy="31.89" r="4"/>
  <circle cx="74.51" cy="31.25" r="4"/>
  <circle cx="8.47" cy="93.13" r="4"/>
  <circle cx="69.88" cy="11.17" r="4"/>
  <circle cx="24.86" cy="8.47" r="4"/>
  <circle cx="93.13" cy="12.57" r="4"/>
  <circle cx="25.37" cy="66.11" r="4"/>
</g>
<g font-size="4" stroke="#000000" stroke-opacity="0.000" fill="#000000" id="fig-2ee5a615420444dfae44367249a0ebdf-element-3">
  <text x="46.36" y="31.89" text-anchor="middle" dy="0.35em">HRAS</text>
  <text x="74.51" y="31.25" text-anchor="middle" dy="0.35em">BRAF</text>
  <text x="8.47" y="93.13" text-anchor="middle" dy="0.35em">PTPN11</text>
  <text x="69.88" y="11.17" text-anchor="middle" dy="0.35em">MAP2K1</text>
  <text x="24.86" y="8.47" text-anchor="middle" dy="0.35em">NF1</text>
  <text x="93.13" y="12.57" text-anchor="middle" dy="0.35em">MAP2K2</text>
  <text x="25.37" y="66.11" text-anchor="middle" dy="0.35em">SOS1</text>
</g>
</svg>
