<?xml version="1.0" encoding="UTF-8"?>
<svg xmlns="http://www.w3.org/2000/svg"
     xmlns:xlink="http://www.w3.org/1999/xlink"
     version="1.2"
     width="101.6mm" height="101.6mm" viewBox="0 0 101.6 101.6"
     stroke="none"
     fill="#000000"
     stroke-width="0.3"
     font-size="3.88"
>
<g stroke-width="1.22" stroke="#BBBBBB" id="fig-40a51cecfc6d4dfaab3eb1314f4246f6-element-1">
  <path fill="none" d="M20.05,15.27 L 15.94 12.11"/>
  <path fill="none" d="M17.06,17.17 L 15.94 12.11"/>
  <path fill="none" d="M34.45,41.19 L 15.94 12.11"/>
  <path fill="none" d="M17.14,42.8 L 12.71 45.49"/>
  <path fill="none" d="M17.83,46.28 L 12.71 45.49"/>
  <path fill="none" d="M34.45,41.19 L 12.71 45.49"/>
  <path fill="none" d="M58.37,57.33 L 63.47 58.28"/>
  <path fill="none" d="M60.17,54.28 L 63.47 58.28"/>
  <path fill="none" d="M34.45,41.19 L 63.47 58.28"/>
  <path fill="none" d="M28.02,34.38 L 32.13 37.54"/>
  <path fill="none" d="M31.01,32.48 L 32.13 37.54"/>
  <path fill="none" d="M13.62,8.47 L 32.13 37.54"/>
  <path fill="none" d="M7.95,36.98 L 9.05 42.04"/>
  <path fill="none" d="M11.46,37.46 L 9.05 42.04"/>
  <path fill="none" d="M13.62,8.47 L 9.05 42.04"/>
  <path fill="none" d="M25.78,44.71 L 30.21 42.02"/>
  <path fill="none" d="M25.09,41.23 L 30.21 42.02"/>
  <path fill="none" d="M8.47,46.32 L 30.21 42.02"/>
  <path fill="none" d="M14.14,17.81 L 13.04 12.75"/>
  <path fill="none" d="M10.62,17.34 L 13.04 12.75"/>
  <path fill="none" d="M8.47,46.32 L 13.04 12.75"/>
  <path fill="none" d="M87.47,83.79 L 88.57 88.85"/>
  <path fill="none" d="M90.99,84.26 L 88.57 88.85"/>
  <path fill="none" d="M93.13,55.34 L 88.57 88.85"/>
  <path fill="none" d="M75.86,56.95 L 71.43 59.63"/>
  <path fill="none" d="M76.55,60.43 L 71.43 59.63"/>
  <path fill="none" d="M93.13,55.34 L 71.43 59.63"/>
  <path fill="none" d="M93.65,64.69 L 92.55 59.63"/>
  <path fill="none" d="M90.14,64.21 L 92.55 59.63"/>
  <path fill="none" d="M87.99,93.13 L 92.55 59.63"/>
  <path fill="none" d="M73.62,67.27 L 69.51 64.11"/>
  <path fill="none" d="M70.63,69.18 L 69.51 64.11"/>
  <path fill="none" d="M87.99,93.13 L 69.51 64.11"/>
  <path fill="none" d="M43.27,44.32 L 38.17 43.38"/>
  <path fill="none" d="M41.47,47.38 L 38.17 43.38"/>
  <path fill="none" d="M67.19,60.47 L 38.17 43.38"/>
  <path fill="none" d="M84.46,58.87 L 88.89 56.18"/>
  <path fill="none" d="M83.77,55.39 L 88.89 56.18"/>
  <path fill="none" d="M67.19,60.47 L 88.89 56.18"/>
  <path fill="none" d="M81.56,86.33 L 85.67 89.49"/>
  <path fill="none" d="M84.55,84.43 L 85.67 89.49"/>
  <path fill="none" d="M67.19,60.47 L 85.67 89.49"/>
</g>
<g stroke="#BBBBBB" fill="#AAAAFF" id="fig-40a51cecfc6d4dfaab3eb1314f4246f6-element-2">
  <circle cx="34.45" cy="41.19" r="4.32"/>
  <circle cx="13.62" cy="8.47" r="4.32"/>
  <circle cx="8.47" cy="46.32" r="4.32"/>
  <circle cx="93.13" cy="55.34" r="4.32"/>
  <circle cx="87.99" cy="93.13" r="4.32"/>
  <circle cx="67.19" cy="60.47" r="4.32"/>
</g>
<g font-size="4" stroke="#000000" stroke-opacity="0.000" fill="#000000" id="fig-40a51cecfc6d4dfaab3eb1314f4246f6-element-3">
  <text x="34.45" y="41.19" text-anchor="middle" dy="0.35em">ERCC3</text>
  <text x="13.62" y="8.47" text-anchor="middle" dy="0.35em">ERCC5</text>
  <text x="8.47" y="46.32" text-anchor="middle" dy="0.35em">ERCC2</text>
  <text x="93.13" y="55.34" text-anchor="middle" dy="0.35em">XPA</text>
  <text x="87.99" y="93.13" text-anchor="middle" dy="0.35em">DDB2</text>
  <text x="67.19" y="60.47" text-anchor="middle" dy="0.35em">XPC</text>
</g>
</svg>
