\relax 
\providecommand\hyper@newdestlabel[2]{}
\providecommand\zref@newlabel[2]{}
\providecommand\HyperFirstAtBeginDocument{\AtBeginDocument}
\HyperFirstAtBeginDocument{\ifx\hyper@anchor\@undefined
\global\let\oldcontentsline\contentsline
\gdef\contentsline#1#2#3#4{\oldcontentsline{#1}{#2}{#3}}
\global\let\oldnewlabel\newlabel
\gdef\newlabel#1#2{\newlabelxx{#1}#2}
\gdef\newlabelxx#1#2#3#4#5#6{\oldnewlabel{#1}{{#2}{#3}}}
\AtEndDocument{\ifx\hyper@anchor\@undefined
\let\contentsline\oldcontentsline
\let\newlabel\oldnewlabel
\fi}
\fi}
\global\let\hyper@last\relax 
\gdef\HyperFirstAtBeginDocument#1{#1}
\providecommand\HyField@AuxAddToFields[1]{}
\providecommand\HyField@AuxAddToCoFields[2]{}
\citation{hotnet2}
\citation{gene_network_ex1}
\citation{gene_network_ex2}
\citation{gene_network_ex3}
\citation{signaling_hyper}
\citation{hint}
\citation{irefindex}
\citation{reactome1}
\citation{reactome2}
\citation{wti}
\citation{pagerank}
\@writefile{toc}{\contentsline {section}{\numberline {1}Introduction}{4}{section.1}}
\citation{fan_chung}
\citation{beyond_pairwise}
\citation{learning_hypergraphs_zhou}
\citation{hypergraph_spectral_learning_app1}
\citation{hypergraph_learning_gene_expression_app2}
\citation{hypergraph_learning_image_segmentation_app3}
\citation{higher_order_learning_with_graphs}
\citation{spectral_diffusion_hyper}
\@writefile{toc}{\contentsline {subsection}{\numberline {1.1}Related Work}{5}{subsection.1.1}}
\citation{hyper_random_walk}
\citation{pagerank_hyper}
\citation{cover_times_hypergraph1}
\citation{cover_times_hypergraph2}
\@writefile{toc}{\contentsline {section}{\numberline {2}Hypergraphs}{6}{section.2}}
\@writefile{loe}{\contentsline {defnbox}{\numberline {2.1}Definition}{6}{defnbox.2.1}}
\pgfsyspdfmark {pgfid1}{4736286}{26761840}
\@writefile{loe}{\contentsline {defnbox}{\numberline {2.2}Definition}{6}{defnbox.2.2}}
\pgfsyspdfmark {pgfid3}{4736286}{6650700}
\citation{assignment_minimal_edge_clique_covering}
\@writefile{loe}{\contentsline {defnbox}{\numberline {2.3}Definition}{7}{defnbox.2.3}}
\pgfsyspdfmark {pgfid5}{4736286}{25908485}
\@writefile{toc}{\contentsline {subsection}{\numberline {2.1}Directed Hypergraphs}{8}{subsection.2.1}}
\@writefile{loe}{\contentsline {defnbox}{\numberline {2.4}Definition}{8}{defnbox.2.4}}
\pgfsyspdfmark {pgfid9}{4736286}{19613807}
\@writefile{loe}{\contentsline {defnbox}{\numberline {2.5}Definition}{9}{defnbox.2.5}}
\pgfsyspdfmark {pgfid11}{4736286}{42834140}
\@writefile{loe}{\contentsline {defnbox}{\numberline {2.6}Definition}{9}{defnbox.2.6}}
\pgfsyspdfmark {pgfid12}{4736286}{28873041}
\@writefile{loa}{\contentsline {algorithm}{\numberline {1}{\ignorespaces Bron-Kerbosch for building maximal directed hypergraph\relax }}{9}{algorithm.1}}
\newlabel{bron_kerbosch_dir}{{1}{9}{Bron-Kerbosch for building maximal directed hypergraph\relax }{algorithm.1}{}}
\@writefile{toc}{\contentsline {section}{\numberline {3}Random Walks}{10}{section.3}}
\@writefile{loe}{\contentsline {defnbox}{\numberline {3.1}Definition}{10}{defnbox.3.1}}
\pgfsyspdfmark {pgfid14}{4736286}{30432397}
\@writefile{loe}{\contentsline {exmp}{\numberline {3.2}Example}{10}{exmp.3.2}}
\pgfsyspdfmark {pgfid16}{4736286}{8022667}
\pgfsyspdfmark {pgfid17}{4736286}{8019623}
\citation{hyper_random_walk}
\citation{learning_hypergraphs_zhou}
\citation{cover_times_hypergraph2}
\citation{cover_times_hypergraph1}
\@writefile{loe}{\contentsline {defnbox}{\numberline {3.3}Definition}{12}{defnbox.3.3}}
\pgfsyspdfmark {pgfid18}{4736286}{25009279}
\@writefile{toc}{\contentsline {section}{\numberline {4}Equivalent Random Walks}{13}{section.4}}
\@writefile{loe}{\contentsline {defnbox}{\numberline {4.1}Definition}{13}{defnbox.4.1}}
\pgfsyspdfmark {pgfid19}{4736286}{32182236}
\@writefile{loe}{\contentsline {prop}{\numberline {4.2}Proposition}{13}{prop.4.2}}
\pgfsyspdfmark {pgfid20}{4736286}{23176007}
\@writefile{loe}{\contentsline {prop}{\numberline {4.3}Proposition}{13}{prop.4.3}}
\newlabel{weighted_simple_equiv}{{4.3}{13}{}{prop.4.3}{}}
\pgfsyspdfmark {pgfid21}{4736286}{5972067}
\pgfsyspdfmark {pgfid22}{4736286}{46541751}
\@writefile{toc}{\contentsline {subsection}{\numberline {4.1}Overview of Results}{14}{subsection.4.1}}
\@writefile{loe}{\contentsline {prob}{\numberline {1}Problem}{14}{prob.1}}
\newlabel{prob_1}{{1}{14}{}{prob.1}{}}
\pgfsyspdfmark {pgfid23}{4736286}{29344876}
\@writefile{loe}{\contentsline {prob}{\numberline {2}Problem}{14}{prob.2}}
\newlabel{prob_2}{{2}{14}{}{prob.2}{}}
\pgfsyspdfmark {pgfid24}{4736286}{22619826}
\@writefile{loe}{\contentsline {theorem}{\numberline {4.4}Theorem}{14}{theorem.4.4}}
\newlabel{simple_db}{{4.4}{14}{}{theorem.4.4}{}}
\pgfsyspdfmark {pgfid25}{4736286}{7556142}
\@writefile{loe}{\contentsline {theorem}{\numberline {4.5}Theorem}{15}{theorem.4.5}}
\newlabel{lazy_db}{{4.5}{15}{}{theorem.4.5}{}}
\pgfsyspdfmark {pgfid26}{4736286}{37213771}
\@writefile{toc}{\contentsline {subsection}{\numberline {4.2}Counterexamples}{15}{subsection.4.2}}
\@writefile{loe}{\contentsline {cexmp}{\numberline {1}Counterexample\thmtformatoptarg {Counterexample to Problem \ref  {prob_1}}}{15}{cexmp.1}}
\newlabel{hyper_walk_counterexample}{{1}{15}{Counterexample to Problem \ref {prob_1}}{cexmp.1}{}}
\pgfsyspdfmark {pgfid28}{4736286}{6311364}
\pgfsyspdfmark {pgfid29}{4736286}{35695572}
\@writefile{loe}{\contentsline {cexmp}{\numberline {2}Counterexample\thmtformatoptarg {Counterexample to Problem \ref  {prob_2}}}{16}{cexmp.2}}
\newlabel{simple_walk_counterexample}{{2}{16}{Counterexample to Problem \ref {prob_2}}{cexmp.2}{}}
\pgfsyspdfmark {pgfid31}{4736286}{5862089}
\pgfsyspdfmark {pgfid32}{4736286}{45634747}
\@writefile{toc}{\contentsline {subsection}{\numberline {4.3}Detailed Balance}{17}{subsection.4.3}}
\@writefile{loe}{\contentsline {defnbox}{\numberline {4.6}Definition}{17}{defnbox.4.6}}
\pgfsyspdfmark {pgfid33}{4736286}{32380037}
\@writefile{loe}{\contentsline {theorem}{\numberline {4.7}Theorem\thmtformatoptarg {Kolmogorov's Criterion}}{17}{theorem.4.7}}
\newlabel{kolmog_eq}{{1}{17}{Kolmogorov's Criterion}{equation.4.1}{}}
\pgfsyspdfmark {pgfid34}{4736286}{20831973}
\@writefile{loe}{\contentsline {theorem}{\numberline {4.8}Theorem}{17}{theorem.4.8}}
\newlabel{markov_detailed_balance}{{4.8}{17}{}{theorem.4.8}{}}
\pgfsyspdfmark {pgfid35}{4736286}{8910616}
\@writefile{loe}{\contentsline {cor}{\numberline {4.9}Corollary}{18}{cor.4.9}}
\newlabel{db_cor}{{4.9}{18}{}{cor.4.9}{}}
\pgfsyspdfmark {pgfid36}{4736286}{21745825}
\@writefile{toc}{\contentsline {subsection}{\numberline {4.4}Proofs of Main Theorems}{18}{subsection.4.4}}
\@writefile{toc}{\contentsline {subsection}{\numberline {4.5}Discussion}{20}{subsection.4.5}}
\@writefile{toc}{\contentsline {subsubsection}{\numberline {4.5.1}Problem \ref  {prob_1}}{20}{subsubsection.4.5.1}}
\@writefile{loe}{\contentsline {theorem}{\numberline {4.10}Theorem}{20}{theorem.4.10}}
\pgfsyspdfmark {pgfid37}{4736286}{11298286}
\citation{wti}
\pgfsyspdfmark {pgfid38}{4736286}{41730658}
\@writefile{toc}{\contentsline {subsubsection}{\numberline {4.5.2}Problem \ref  {prob_2}}{21}{subsubsection.4.5.2}}
\@writefile{loe}{\contentsline {prop}{\numberline {4.11}Proposition}{21}{prop.4.11}}
\newlabel{prob_2_system}{{2}{21}{}{equation.4.2}{}}
\pgfsyspdfmark {pgfid39}{4736286}{22280858}
\@writefile{toc}{\contentsline {section}{\numberline {5}Applications to Disease-Gene Prioritization}{21}{section.5}}
\@writefile{toc}{\contentsline {subsection}{\numberline {5.1}Method}{21}{subsection.5.1}}
\citation{ben_pagerank_notes}
\@writefile{toc}{\contentsline {subsection}{\numberline {5.2}Personalized PageRank Kernel}{22}{subsection.5.2}}
\citation{reactome1}
\citation{reactome2}
\@writefile{toc}{\contentsline {subsection}{\numberline {5.3}Results}{23}{subsection.5.3}}
\@writefile{lof}{\contentsline {figure}{\numberline {1}{\ignorespaces Example of how to convert $G$ to $H$. Red edges denote protein complexes.\relax }}{23}{figure.caption.2}}
\citation{wti}
\@writefile{lof}{\contentsline {figure}{\numberline {2}{\ignorespaces Average rank for each disease class using the ReactomeFI network.\relax }}{25}{figure.caption.3}}
\providecommand*\caption@xref[2]{\@setref\relax\@undefined{#1}}
\newlabel{disease_gene_prioritization_results}{{2}{25}{Average rank for each disease class using the ReactomeFI network.\relax }{figure.caption.3}{}}
\@writefile{toc}{\contentsline {subsubsection}{\numberline {5.3.1}Degree Distribution in Simple Graph}{25}{subsubsection.5.3.1}}
\@writefile{lof}{\contentsline {figure}{\numberline {3}{\ignorespaces Degree distribution of disease-genes in different disease classes.\relax }}{25}{figure.caption.4}}
\@writefile{toc}{\contentsline {subsubsection}{\numberline {5.3.2}Simple Graphs versus Hypergraphs}{26}{subsubsection.5.3.2}}
\@writefile{lof}{\contentsline {figure}{\numberline {4}{\ignorespaces Change in rank when going from simple graph kernel to hypergraph kernel, versus number of maximal cliques of $G'$ that contain the gene.\relax }}{26}{figure.caption.5}}
\newlabel{rank_change}{{4}{26}{Change in rank when going from simple graph kernel to hypergraph kernel, versus number of maximal cliques of $G'$ that contain the gene.\relax }{figure.caption.5}{}}
\citation{pref_attach}
\@writefile{toc}{\contentsline {subsubsection}{\numberline {5.3.3}Different Types of Hypergraphs}{27}{subsubsection.5.3.3}}
\@writefile{lof}{\contentsline {figure}{\numberline {5}{\ignorespaces Weighted hypergraph kernel minus unweighted hypergraph kernel.\relax }}{28}{figure.caption.6}}
\newlabel{pref_attach1}{{5}{28}{Weighted hypergraph kernel minus unweighted hypergraph kernel.\relax }{figure.caption.6}{}}
\@writefile{lof}{\contentsline {figure}{\numberline {6}{\ignorespaces Weighted hypergraph kernel minus weighted hypergraph with cliques kernel.\relax }}{28}{figure.caption.7}}
\citation{minimal_edge_clique_covering}
\citation{edge_clique_cover_is_hard}
\citation{assignment_minimal_edge_clique_covering}
\citation{hotnet2}
\citation{mcl}
\@writefile{toc}{\contentsline {section}{\numberline {6}Conclusion}{29}{section.6}}
\@writefile{toc}{\contentsline {subsection}{\numberline {6.1}Creating a Different Hypergraph}{29}{subsection.6.1}}
\@writefile{loe}{\contentsline {prob}{\numberline {3}Problem}{29}{prob.3}}
\pgfsyspdfmark {pgfid42}{4736286}{18009048}
\@writefile{toc}{\contentsline {subsection}{\numberline {6.2}Alternative Versions of Problems \ref  {prob_1} and \ref  {prob_2}}{30}{subsection.6.2}}
\@writefile{loe}{\contentsline {prob}{\numberline {4}Problem}{30}{prob.4}}
\pgfsyspdfmark {pgfid43}{4736286}{28694143}
\@writefile{toc}{\contentsline {section}{\numberline {7}Acknowledgements}{30}{section.7}}
\bibstyle{abbrv}
\bibdata{hypergraphs_bibliography}
\bibcite{higher_order_learning_with_graphs}{1}
\bibcite{beyond_pairwise}{2}
\bibcite{pref_attach}{3}
\bibcite{cover_times_hypergraph2}{4}
\bibcite{gene_network_ex2}{5}
\bibcite{hyper_random_walk}{6}
\bibcite{pagerank_kernel2}{7}
\bibcite{pagerank_hyper}{8}
\bibcite{spectral_diffusion_hyper}{9}
\bibcite{fan_chung}{10}
\bibcite{pagerank_kernel1}{11}
\bibcite{cover_times_hypergraph1}{12}
\bibcite{reactome1}{13}
\bibcite{edge_clique_cover_is_hard}{14}
\bibcite{hint}{15}
\bibcite{hypergraph_learning_image_segmentation_app3}{16}
\bibcite{assignment_minimal_edge_clique_covering}{17}
\bibcite{reactome2}{18}
\bibcite{minimal_edge_clique_covering}{19}
\bibcite{gene_network_ex1}{20}
\bibcite{wti}{21}
\bibcite{hotnet2}{22}
\bibcite{edge_clique_cover}{23}
\bibcite{pagerank}{24}
\bibcite{ben_pagerank_notes}{25}
\bibcite{irefindex}{26}
\bibcite{signaling_hyper}{27}
\bibcite{hypergraph_spectral_learning_app1}{28}
\bibcite{hypergraph_learning_gene_expression_app2}{29}
\bibcite{mcl}{30}
\bibcite{gene_network_ex3}{31}
\bibcite{learning_hypergraphs_zhou}{32}
\citation{*}
