\contentsline {section}{\numberline {1}Hypergraphs}{1}{section.1}
\contentsline {section}{\numberline {2}Random Walks}{2}{section.2}
\contentsline {section}{\numberline {3}Results}{4}{section.3}
\contentsline {subsection}{\numberline {3.1}Previous Results}{4}{subsection.3.1}
\contentsline {subsection}{\numberline {3.2}New Result}{5}{subsection.3.2}
