\relax 
\providecommand\hyper@newdestlabel[2]{}
\providecommand\zref@newlabel[2]{}
\providecommand\HyperFirstAtBeginDocument{\AtBeginDocument}
\HyperFirstAtBeginDocument{\ifx\hyper@anchor\@undefined
\global\let\oldcontentsline\contentsline
\gdef\contentsline#1#2#3#4{\oldcontentsline{#1}{#2}{#3}}
\global\let\oldnewlabel\newlabel
\gdef\newlabel#1#2{\newlabelxx{#1}#2}
\gdef\newlabelxx#1#2#3#4#5#6{\oldnewlabel{#1}{{#2}{#3}}}
\AtEndDocument{\ifx\hyper@anchor\@undefined
\let\contentsline\oldcontentsline
\let\newlabel\oldnewlabel
\fi}
\fi}
\global\let\hyper@last\relax 
\gdef\HyperFirstAtBeginDocument#1{#1}
\providecommand\HyField@AuxAddToFields[1]{}
\providecommand\HyField@AuxAddToCoFields[2]{}
\@writefile{toc}{\contentsline {section}{\numberline {1}Hypergraphs}{1}{section.1}}
\@writefile{loe}{\contentsline {defnbox}{\numberline {1.1}Definition}{1}{defnbox.1.1}}
\pgfsyspdfmark {pgfid1}{4736286}{26394086}
\@writefile{loe}{\contentsline {defnbox}{\numberline {1.2}Definition}{1}{defnbox.1.2}}
\pgfsyspdfmark {pgfid3}{4736286}{6282946}
\@writefile{toc}{\contentsline {section}{\numberline {2}Random Walks}{2}{section.2}}
\@writefile{loe}{\contentsline {defnbox}{\numberline {2.1}Definition}{2}{defnbox.2.1}}
\pgfsyspdfmark {pgfid5}{4736286}{27673541}
\@writefile{loe}{\contentsline {exmp}{\numberline {2.2}Example}{2}{exmp.2.2}}
\pgfsyspdfmark {pgfid7}{4736286}{5321687}
\pgfsyspdfmark {pgfid8}{4736286}{8019623}
\@writefile{loe}{\contentsline {defnbox}{\numberline {2.3}Definition}{4}{defnbox.2.3}}
\pgfsyspdfmark {pgfid9}{4736286}{24897086}
\@writefile{toc}{\contentsline {section}{\numberline {3}Results}{4}{section.3}}
\@writefile{toc}{\contentsline {subsection}{\numberline {3.1}Previous Results}{4}{subsection.3.1}}
\@writefile{loe}{\contentsline {theorem}{\numberline {3.1}Theorem}{5}{theorem.3.1}}
\newlabel{simple_db}{{3.1}{5}{}{theorem.3.1}{}}
\newlabel{simple_db_edge_weights}{{1}{5}{}{equation.3.1}{}}
\pgfsyspdfmark {pgfid10}{4736286}{39854354}
\@writefile{loe}{\contentsline {theorem}{\numberline {3.2}Theorem}{5}{theorem.3.2}}
\newlabel{lazy_db}{{3.2}{5}{}{theorem.3.2}{}}
\pgfsyspdfmark {pgfid11}{4736286}{33126433}
\newlabel{stat_dist_lazy_db}{{3}{5}{Previous Results}{equation.3.3}{}}
\@writefile{toc}{\contentsline {subsection}{\numberline {3.2}New Result}{5}{subsection.3.2}}
\@writefile{loe}{\contentsline {theorem}{\numberline {3.3}Theorem}{6}{theorem.3.3}}
\newlabel{lazy_stat_dist}{{3.3}{6}{}{theorem.3.3}{}}
\newlabel{stat_dist_lazy_thm}{{5}{6}{}{equation.3.5}{}}
\newlabel{rho_constr1}{{6}{6}{}{equation.3.6}{}}
\newlabel{rho_constr2}{{7}{6}{}{equation.3.7}{}}
\pgfsyspdfmark {pgfid12}{4736286}{28733287}
\@writefile{loe}{\contentsline {lem}{\numberline {3.4}Lemma}{6}{lem.3.4}}
\pgfsyspdfmark {pgfid13}{4736286}{19752893}
\newlabel{a_mat}{{9}{6}{New Result}{equation.3.9}{}}
\newlabel{A_eq}{{17}{8}{New Result}{equation.3.17}{}}
