\beamer@endinputifotherversion {3.36pt}
\beamer@sectionintoc {1}{\scshape Introduction}{1}{0}{1}
\beamer@sectionintoc {2}{\scshape Implementation}{3}{0}{2}
\beamer@sectionintoc {3}{\scshape Results}{6}{0}{3}
\beamer@sectionintoc {4}{\scshape Analysis}{10}{0}{4}
