\beamer@endinputifotherversion {3.36pt}
\headcommand {\sectionentry {1}{\scshape Introduction}{1}{\scshape Introduction}{0}}
\headcommand {\beamer@sectionpages {1}{0}}
\headcommand {\beamer@subsectionpages {1}{0}}
\headcommand {\slideentry {1}{0}{1}{1/1}{}{0}}
\headcommand {\beamer@framepages {1}{1}}
\headcommand {\slideentry {1}{0}{2}{2/2}{}{0}}
\headcommand {\beamer@framepages {2}{2}}
\headcommand {\sectionentry {2}{\scshape Implementation}{3}{\scshape Implementation}{0}}
\headcommand {\beamer@sectionpages {1}{2}}
\headcommand {\beamer@subsectionpages {1}{2}}
\headcommand {\slideentry {2}{0}{1}{3/3}{}{0}}
\headcommand {\beamer@framepages {3}{3}}
\headcommand {\slideentry {2}{0}{2}{4/4}{}{0}}
\headcommand {\beamer@framepages {4}{4}}
\headcommand {\slideentry {2}{0}{3}{5/5}{}{0}}
\headcommand {\beamer@framepages {5}{5}}
\headcommand {\sectionentry {3}{\scshape Results}{6}{\scshape Results}{0}}
\headcommand {\beamer@sectionpages {3}{5}}
\headcommand {\beamer@subsectionpages {3}{5}}
\headcommand {\slideentry {3}{0}{1}{6/6}{}{0}}
\headcommand {\beamer@framepages {6}{6}}
\headcommand {\slideentry {3}{0}{2}{7/7}{}{0}}
\headcommand {\beamer@framepages {7}{7}}
\headcommand {\slideentry {3}{0}{3}{8/8}{}{0}}
\headcommand {\beamer@framepages {8}{8}}
\headcommand {\slideentry {3}{0}{4}{9/9}{}{0}}
\headcommand {\beamer@framepages {9}{9}}
\headcommand {\sectionentry {4}{\scshape Analysis}{10}{\scshape Analysis}{0}}
\headcommand {\beamer@sectionpages {6}{9}}
\headcommand {\beamer@subsectionpages {6}{9}}
\headcommand {\slideentry {4}{0}{1}{10/10}{}{0}}
\headcommand {\beamer@framepages {10}{10}}
\headcommand {\slideentry {4}{0}{2}{11/11}{}{0}}
\headcommand {\beamer@framepages {11}{11}}
\headcommand {\slideentry {4}{0}{3}{12/12}{}{0}}
\headcommand {\beamer@framepages {12}{12}}
\headcommand {\slideentry {4}{0}{4}{13/13}{}{0}}
\headcommand {\beamer@framepages {13}{13}}
\headcommand {\slideentry {4}{0}{5}{14/14}{}{0}}
\headcommand {\beamer@framepages {14}{14}}
\headcommand {\slideentry {4}{0}{6}{15/15}{}{0}}
\headcommand {\beamer@framepages {15}{15}}
\headcommand {\slideentry {4}{0}{7}{16/16}{}{0}}
\headcommand {\beamer@framepages {16}{16}}
\headcommand {\slideentry {4}{0}{8}{17/17}{}{0}}
\headcommand {\beamer@framepages {17}{17}}
\headcommand {\slideentry {4}{0}{9}{18/18}{}{0}}
\headcommand {\beamer@framepages {18}{18}}
\headcommand {\slideentry {4}{0}{10}{19/19}{}{0}}
\headcommand {\beamer@framepages {19}{19}}
\headcommand {\slideentry {4}{0}{11}{20/20}{}{0}}
\headcommand {\beamer@framepages {20}{20}}
\headcommand {\slideentry {4}{0}{12}{21/21}{}{0}}
\headcommand {\beamer@framepages {21}{21}}
\headcommand {\slideentry {4}{0}{13}{22/22}{}{0}}
\headcommand {\beamer@framepages {22}{22}}
\headcommand {\slideentry {4}{0}{14}{23/23}{}{0}}
\headcommand {\beamer@framepages {23}{23}}
\headcommand {\slideentry {4}{0}{15}{24/24}{}{0}}
\headcommand {\beamer@framepages {24}{24}}
\headcommand {\beamer@partpages {1}{24}}
\headcommand {\beamer@subsectionpages {10}{24}}
\headcommand {\beamer@sectionpages {10}{24}}
\headcommand {\beamer@documentpages {24}}
\headcommand {\def \inserttotalframenumber {24}}
